<?xml version="1.0" encoding="utf-8"?>
<!DOCTYPE svg PUBLIC "-//W3C//DTD SVG 1.1//EN" "http://www.w3.org/Graphics/SVG/1.1/DTD/svg11.dtd">
<svg version="1.1" id="Layer_1" xmlns="http://www.w3.org/2000/svg" xmlns:xlink="http://www.w3.org/1999/xlink" width="100%" height="100%" viewBox="0 0 1536 1062" enable-background="new 0 0 1536 1062" xml:space="preserve">
<polygon opacity="0.8" fill="#FFFFFF" points="0,260.75 1536,4.345 1536,1062 0,1062 "/>
</svg>
