<?xml version="1.0" encoding="utf-8"?>
<!DOCTYPE svg PUBLIC "-//W3C//DTD SVG 1.1//EN" "http://www.w3.org/Graphics/SVG/1.1/DTD/svg11.dtd">
<svg version="1.1" id="Foreground" xmlns="http://www.w3.org/2000/svg" xmlns:xlink="http://www.w3.org/1999/xlink" x="0px" y="0px"
	 width="556px" height="151.322px" viewBox="475.5 432.5 556 151.322" enable-background="new 475.5 432.5 556 151.322"
	 xml:space="preserve">
<g>
	<g>
		<polygon fill="#C51A1B" points="488.611,544.136 508.138,549.216 508.138,565.249 488.611,560.248 		"/>
		<polygon fill="#C51A1B" points="488.611,491.434 545.045,506.117 545.045,521.753 488.611,507.069 		"/>
		<polygon fill="#C51A1B" points="488.611,517.864 526.552,527.706 526.552,543.343 488.611,533.5 		"/>
	</g>
	<g>
		<path d="M563.539,566.836v-46.353c0-13.731,9.921-14.287,20.637-14.287c4.206,0,11.588,0.238,15.953,0.397v8.016h-16.191
			c-8.414,0-9.843,1.667-9.843,9.366v7.938h24.923v8.254h-24.923v26.669H563.539z"/>
		<path d="M637.593,520.562h9.842v34.289c0,3.016-0.159,5.715-0.396,8.492c-5.239,2.54-12.065,4.048-20.796,4.048
			c-16.191,0-17.858-7.619-17.858-17.224v-29.605h9.842v28.574c0,7.381,1.271,10.477,10.716,10.477c2.937,0,6.35-0.556,8.334-1.587
			c0.237-1.905,0.317-4.128,0.317-6.191V520.562L637.593,520.562z"/>
		<path d="M658.785,502.704h9.921v51.671c0,4.286,0.952,7.223,3.413,10.397l-8.572,4.048c-3.016-3.413-4.683-7.619-4.683-14.049
			v-52.067H658.785z"/>
		<path d="M679.977,502.704h9.922v51.671c0,4.286,0.952,7.223,3.413,10.397l-8.572,4.048c-3.017-3.413-4.683-7.619-4.683-14.049
			v-52.067H679.977z"/>
		<path d="M724.98,554.216c0-5.317-4.762-5.714-9.048-7.063c-7.462-2.223-14.446-4.128-14.446-14.128
			c0-10.16,7.144-13.018,16.271-13.018c6.35,0,10.874,0.556,16.43,1.826l-0.952,7.223c-3.571-0.715-7.461-1.271-11.589-1.271
			c-3.73,0-10.397,0-10.397,4.763c0,4.842,5.636,5.715,9.445,6.984c7.858,2.699,14.287,4.128,14.287,14.287
			c0,10.636-7.857,13.652-18.018,13.652c-4.921,0-11.191-0.636-15.953-1.826l0.952-7.381c3.572,0.635,8.651,1.27,12.303,1.27
			C717.916,559.534,724.98,559.613,724.98,554.216z"/>
		<path d="M769.905,566.757c-2.144,0.397-4.842,0.715-6.985,0.715c-9.365,0-13.334-4.048-13.334-12.62v-26.907h-7.778v-7.303h7.778
			v-11.429l9.922-1.588v13.017h9.604v7.303h-9.604v26.034c0,4.444,1.904,5.873,6.19,5.873c1.19,0,2.302-0.079,3.492-0.158
			L769.905,566.757z"/>
		<path d="M785.7,548.66c0.556,8.89,5.159,10.953,12.302,10.953c6.191,0,11.827-0.635,16.589-1.19l0.794,7.382
			c-5,0.794-11.032,1.667-19.922,1.667c-15.478,0-19.605-10.081-19.605-23.732c0-16.747,5.16-23.732,20.558-23.732
			c16.668,0,20.16,8.811,20.16,22.542c0,1.111,0,2.222-0.158,3.413c-5.318,0.952-16.351,2.063-22.7,2.302L785.7,548.66z
			 M794.748,541.438c3.413-0.159,8.731-0.635,11.906-1.032c0.079-0.635,0.079-1.587,0.079-2.143c0-7.064-2.619-10.874-10.239-10.874
			c-9.763,0-11.032,6.191-11.032,14.525L794.748,541.438z"/>
		<path d="M836.577,583.822h-9.842v-51.274c0-3.017,0.158-5.715,0.396-8.493c5.159-2.937,12.144-4.048,18.176-4.048
			c15.16,0,21.589,5.636,21.589,23.732c0,17.858-6.111,23.732-20.16,23.732c-3.254,0-6.984-0.477-10.08-1.271v17.621H836.577z
			 M844.355,559.852c12.303,0,12.541-6.746,12.541-16.112c0-8.493-0.635-16.192-11.588-16.192c-2.938,0-6.43,0.556-8.414,1.588
			c-0.238,1.905-0.317,4.127-0.317,6.191v23.176C838.879,559.296,841.975,559.852,844.355,559.852z"/>
		<path fill="#C51A1B" d="M905.075,566.836h-5.08v-59.767c5.477-0.794,11.826-1.35,18.097-1.35c12.779,0,23.256,2.54,23.256,17.938
			c0,15.08-9.286,18.414-22.541,18.414c-3.413,0-10.637-0.317-13.731-0.477V566.836z M905.075,537.072
			c5.635,0.556,9.286,0.635,13.017,0.635c11.588,0,18.176-2.778,18.176-14.049c0-9.604-4.762-13.572-17.858-13.572
			c-3.651,0-8.492,0.237-13.334,0.873V537.072z"/>
		<path fill="#C51A1B" d="M952.301,566.836v-35.638c0-2.54,0.08-5.238,0.159-7.619c5.079-2.619,11.271-3.572,17.064-3.572
			c1.509,0,2.937,0.08,4.286,0.238l-0.477,4.365c-1.19-0.079-2.46-0.158-3.889-0.158c-3.81,0-8.651,0.714-12.224,2.302
			c-0.079,2.302-0.158,5.477-0.158,7.699v32.463h-4.763V566.836z"/>
		<path fill="#C51A1B" d="M980.479,543.66c0-17.304,5.317-23.732,20.16-23.732c14.842,0,20.16,6.667,20.16,23.732
			c0,16.985-5.318,23.731-20.16,23.731C985.796,567.472,980.479,561.042,980.479,543.66z M1015.878,543.66
			c0-14.764-3.73-19.446-15.319-19.446c-11.271,0-15.318,3.969-15.318,19.446c0,15.397,4.048,19.445,15.318,19.445
			C1012.068,563.186,1015.878,558.502,1015.878,543.66z"/>
	</g>
</g>
<g>
	<path d="M498.295,443.017c6.112,0,9.684,3.016,9.684,8.334c0,5.477-3.492,8.73-9.684,8.73h-5.635v7.382h-4.128v-24.367h9.763
		V443.017z M492.66,456.351h5.396c3.73,0,5.874-1.587,5.874-4.921c0-3.175-2.144-4.762-5.874-4.762h-5.396V456.351z"/>
	<path d="M529.409,458.098c0,5.556-3.969,9.365-9.684,9.365s-9.684-3.81-9.684-9.365c0-5.636,3.969-9.366,9.684-9.366
		S529.409,452.541,529.409,458.098z M514.09,458.177c0,3.571,2.302,6.032,5.715,6.032c3.334,0,5.636-2.461,5.636-6.032
		c0-3.572-2.302-5.953-5.636-5.953C516.392,452.145,514.09,454.604,514.09,458.177z"/>
	<path d="M550.283,467.384l-4.683-13.731l-4.683,13.731h-4.128l-6.825-18.494h4.127l4.842,14.525l4.683-14.525h4.128l4.683,14.525
		l4.763-14.525h4.048l-6.747,18.494H550.283z"/>
	<path d="M579.572,459.685h-13.97c0.635,2.857,2.857,4.604,5.715,4.604c1.984,0,3.889-0.794,5.238-2.143l2.143,2.302
		c-1.825,1.984-4.444,3.175-7.698,3.175c-5.715,0-9.445-3.811-9.445-9.366c0-5.636,3.889-9.366,9.365-9.445
		C577.429,448.731,580.048,452.938,579.572,459.685z M576.079,456.748c-0.158-3.017-2.143-4.842-5.159-4.842
		c-2.937,0-5,1.825-5.396,4.842H576.079z"/>
	<path d="M587.747,452.541c1.27-2.54,3.492-3.81,6.429-3.81v3.81c-3.73-0.238-6.111,1.984-6.429,5.159v9.684h-3.969V448.89h3.969
		V452.541z"/>
	<path d="M613.781,459.685h-13.97c0.635,2.857,2.857,4.604,5.715,4.604c1.984,0,3.89-0.794,5.238-2.143l2.144,2.302
		c-1.826,1.984-4.445,3.175-7.699,3.175c-5.715,0-9.445-3.811-9.445-9.366c0-5.636,3.889-9.366,9.365-9.445
		C611.638,448.731,614.257,452.938,613.781,459.685z M610.289,456.748c-0.159-3.017-2.144-4.842-5.159-4.842
		c-2.938,0-5.001,1.825-5.397,4.842H610.289z"/>
	<path d="M635.608,467.384h-3.969v-3.175c-1.35,2.143-3.572,3.333-6.509,3.333c-5.317,0-8.89-3.889-8.89-9.524
		c0-5.556,3.572-9.365,8.811-9.365c3.016,0,5.238,1.19,6.588,3.412v-10.556h3.969V467.384L635.608,467.384z M631.64,458.177
		c0-3.572-2.302-6.112-5.715-6.112c-3.334,0-5.715,2.54-5.715,6.112c0,3.492,2.302,6.032,5.715,6.032S631.64,461.748,631.64,458.177
		z"/>
	<path d="M670.214,458.177c0,5.556-3.492,9.365-8.81,9.365c-2.938,0-5.159-1.19-6.588-3.333v3.175h-3.969v-25.875h3.969v10.556
		c1.349-2.143,3.571-3.333,6.508-3.333C666.643,448.731,670.214,452.541,670.214,458.177z M666.166,458.098
		c0-3.413-2.302-5.953-5.635-5.953c-3.334,0-5.636,2.54-5.636,5.953c0,3.571,2.302,6.032,5.636,6.032
		C663.864,464.129,666.166,461.59,666.166,458.098z"/>
	<path d="M681.009,469.924c-1.111,2.937-3.255,4.365-6.032,4.365c-1.667,0-3.016-0.477-4.286-1.588l1.746-3.095
		c0.873,0.635,1.587,0.873,2.381,0.873c1.19,0,2.223-0.636,2.857-2.064l0.636-1.429l-7.699-18.255h4.127l5.556,14.049l5.159-14.049
		h3.969L681.009,469.924z"/>
</g>
</svg>
