<?xml version="1.0" encoding="utf-8"?>
<!-- Generator: Adobe Illustrator 16.0.0, SVG Export Plug-In . SVG Version: 6.00 Build 0)  -->
<!DOCTYPE svg PUBLIC "-//W3C//DTD SVG 1.1//EN" "http://www.w3.org/Graphics/SVG/1.1/DTD/svg11.dtd">
<svg version="1.1" id="Foreground" xmlns="http://www.w3.org/2000/svg" xmlns:xlink="http://www.w3.org/1999/xlink" x="0px" y="0px"
	 width="1053.5px" height="284.8px" viewBox="440.9 271.2 1053.5 284.8" enable-background="new 440.9 271.2 1053.5 284.8"
	 xml:space="preserve">
<g>
	<g>
		<path d="M679.8,481v-73.4H748.4V385H679.8v-21.9c-0.3-10.3,1.3-17.3,4.9-20.8c3.6-3.6,11-5.2,22.3-5h44.7v-22.1
			c-6.4-0.3-13.8-0.601-22.2-0.8c-8.4-0.2-15.6-0.301-21.8-0.4c-10-0.2-19.3,0.4-27.9,1.8c-8.6,1.4-15.5,4.9-20.8,10.601
			c-5.3,5.6-8,14.6-8.2,27V481H679.8z"/>
		<path d="M855.8,439.9c0,2.899-0.1,5.8-0.2,8.699c-0.1,2.9-0.3,5.7-0.6,8.301c-2.9,1.399-6.4,2.5-10.5,3.199
			c-4.2,0.7-8.3,1.101-12.5,1.101c-12.6,0.1-20.7-2.2-24.4-6.8c-3.699-4.601-5.399-12-5-22V353.8h-27.1v81.5
			c-0.2,8.9,0.7,16.9,2.8,24C780.4,466.4,785,472,792,476.2c7.1,4.2,17.9,6.3,32.5,6.399c12,0,22.7-1,32.2-2.899
			c9.5-1.9,17.8-4.7,25-8.2c0.399-3.8,0.6-7.6,0.8-11.4c0.2-3.8,0.3-7.8,0.3-11.899v-94.4h-27.1V439.9H855.8z"/>
		<path d="M915.2,448c0,8.7,1.1,16.2,3.3,22.4c2.2,6.199,5.3,11.6,9.5,16.199l23.6-11.199c-3.3-4.301-5.699-8.7-7.1-13.2
			c-1.5-4.5-2.2-9.601-2.2-15.4V304.5h-27.1V448z"/>
		<path d="M974.901,448c0,8.7,1.1,16.2,3.299,22.4c2.201,6.199,5.301,11.6,9.5,16.199l23.6-11.199c-3.299-4.301-5.699-8.7-7.1-13.2
			c-1.5-4.5-2.199-9.601-2.199-15.4V304.5h-27.1V448z"/>
		<path d="M1070.2,460.8c-5.199,0-10.9-0.399-17.1-1.1s-11.801-1.5-16.9-2.4l-2.6,20.4c6.801,1.6,14,2.899,21.801,3.7
			c7.799,0.8,15.199,1.3,22.199,1.3c14.301,0.3,26.1-2.3,35.4-7.7c9.299-5.4,14-15.3,14.4-29.7c-0.102-9.2-1.9-16.2-5.4-21
			s-8.201-8.6-14.1-11.1c-5.9-2.601-12.5-5-19.9-7.3c-3.701-1.101-7.5-2.301-11.5-3.601s-7.4-3.1-10.201-5.5
			c-2.799-2.399-4.299-5.8-4.398-10.1c0.199-4.2,1.898-7.3,5.199-9.101c3.301-1.8,7.1-3,11.6-3.399c4.4-0.4,8.5-0.601,12.1-0.5
			c5.602,0,11.102,0.399,16.4,1c5.301,0.7,10.5,1.5,15.4,2.399l2.6-19.899c-7.4-1.7-14.699-3-21.799-3.7
			c-7.102-0.8-14.9-1.2-23.602-1.2c-13-0.2-23.6,2.2-32,7.5c-8.398,5.2-12.699,14.7-13,28.4c0.102,9,2,15.899,5.801,20.8
			s8.6,8.6,14.699,11.2c6,2.6,12.5,4.8,19.5,6.7c6.301,1.5,11.9,3.399,17,5.6c5.102,2.2,7.801,6.8,8.102,13.8
			c-0.201,4.9-2,8.4-5.4,10.4c-3.4,2.1-7.5,3.3-12,3.7C1077.799,460.8,1073.7,460.9,1070.2,460.8z"/>
		<path d="M1222.1,461.4c-3.199,0.199-6.4,0.3-9.6,0.399c-5.9,0.101-10.201-1-12.9-3.399c-2.801-2.4-4.1-6.601-4.1-12.601V374h26.4
			v-20.2h-26.4v-36l-27.1,4.4v31.6h-21.5V374h21.5v74c-0.102,11.7,2.799,20.4,8.699,26.2c5.9,5.7,15.199,8.6,27.9,8.5
			c3,0,6.199-0.2,9.6-0.601c3.4-0.399,6.6-0.8,9.6-1.3L1222.1,461.4z"/>
		<path d="M1291.6,429.8c6-0.3,12.9-0.8,20.801-1.399c7.799-0.7,15.5-1.4,22.898-2.301c7.5-0.899,13.701-1.699,18.801-2.6
			c0.301-3.2,0.4-6.3,0.4-9.4c0.199-12.6-1.201-23.6-4.201-32.8s-8.5-16.399-16.6-21.399s-19.699-7.601-34.799-7.7
			c-20.9-0.2-35.602,4.899-44.102,15.3c-8.6,10.4-12.699,26.9-12.398,49.7c-0.102,12.7,1.398,23.899,4.5,33.7
			c3.1,9.8,8.6,17.5,16.398,23.1c7.801,5.6,18.801,8.5,32.9,8.6c12.1-0.1,22.6-0.6,31.5-1.5c8.801-0.899,16.701-2,23.5-3.199
			l-2.299-20.2c-6.602,0.899-13.701,1.6-21.4,2.3c-7.701,0.7-15.801,1-24.301,1c-9.9,0.3-17.9-1.7-23.799-5.9
			c-5.9-4.199-9.301-12.3-10.102-24.3L1291.6,429.8z M1268.5,412.3c-0.1-7.7,0.5-14.5,1.9-20.5c1.398-5.899,4.299-10.6,8.699-14
			c4.4-3.399,11-5.1,19.801-5.2c10.398,0,17.799,2.601,22,7.7c4.299,5.101,6.299,12.4,6.199,22.101c0,0.899,0,1.8-0.1,2.899
			c0,1.101-0.1,2.101-0.201,2.9c-4.6,0.6-10,1.2-16.199,1.7s-11.699,0.899-16.6,1.1L1268.5,412.3z"/>
		<path d="M1410.7,479.2c4.4,1.1,9,1.899,13.9,2.5c4.801,0.6,9.5,0.899,14,0.899c19.301,0.301,33.5-4.399,42.5-14.199
			c9-9.801,13.4-26.801,13.301-51c0.1-24.5-4.5-41.601-14-51.301c-9.5-9.699-24.701-14.399-45.5-14c-8.5,0-17.201,0.801-26,2.601
			c-8.801,1.8-16.9,4.6-24.102,8.6c-0.398,3.8-0.6,7.601-0.799,11.4c-0.201,3.8-0.301,7.8-0.301,11.899v141.2h27.1v-48.6H1410.7z
			 M1410.7,458.2v-63.8c0-2.9,0.1-5.801,0.201-8.7c0.1-2.9,0.299-5.7,0.6-8.3c2.9-1.4,6.4-2.5,10.699-3.2
			c4.199-0.7,8.5-1.101,12.699-1.101c10,0.101,17.301,2.2,21.9,6.301c4.6,4.1,7.5,9.5,8.701,16.199c1.199,6.7,1.699,14,1.6,21.9
			c0.199,8.6-0.301,16.2-1.4,22.8c-1.199,6.601-4.199,11.8-9.1,15.601c-4.9,3.8-13,5.699-24.201,5.8c-3.398,0-7-0.3-10.898-1
			C1417.5,460.1,1413.901,459.3,1410.7,458.2z"/>
	</g>
	<g>
		<polygon fill="#C51A1B" points="440.9,418.4 495.4,432.5 495.4,477.4 440.9,463.3 		"/>
		<polygon fill="#C51A1B" points="440.9,271.2 598.5,312.2 598.5,355.9 440.9,314.9 		"/>
		<polygon fill="#C51A1B" points="440.9,345.1 547,372.6 547,416.1 440.9,388.7 		"/>
	</g>
	<g>
		<path d="M766.4,529.7c0-12.2,2.8-17.101,12.899-17.101c10,0,12.8,5,12.8,17.101c0,12.1-2.8,17.1-12.8,17.1
			C769.2,546.8,766.4,541.9,766.4,529.7z M789.3,529.7c0-8.601-0.399-14.7-10-14.7c-9.6,0-10,6.1-10,14.7c0,8.6,0.4,14.7,10,14.7
			C788.8,544.4,789.3,538.3,789.3,529.7z"/>
		<path d="M804,556h-2.7v-29.2c0-1.399,0-2.899,0.101-4.2c2.8-1.399,6.3-2,9.5-2c8,0,11.399,3.2,11.399,13.2c0,9.8-3,13.2-10.6,13.2
			c-2.7,0-5.2-0.4-7.7-1.1V556z M810.6,544.5c7.2,0,8.9-2.8,8.9-10.8c0-7.8-2.2-10.8-8.7-10.8c-2.1,0-4.8,0.399-6.8,1.3
			c-0.1,1.3-0.1,3-0.1,4.3v15C805.7,544,808.4,544.5,810.6,544.5z"/>
		<path d="M835.6,513.6v7.2h5.9v2.2h-5.9v16.7c0,4.1,1.301,4.8,4.801,4.8c0.399,0,0.8,0,1.199-0.1l0.2,2.1c-0.7,0.1-1.6,0.2-2.3,0.2
			c-4.6,0-6.5-2-6.5-6.601V522.9h-4.8v-2.2h4.8V514L835.6,513.6z"/>
		<path d="M848.9,512.9c0-1.601,0.399-2.301,1.6-2.301s1.6,0.601,1.6,2.301c0,1.6-0.3,2.199-1.6,2.199S848.9,514.5,848.9,512.9z
			 M849.1,520.8h2.7v25.7h-2.7V520.8z"/>
		<path d="M863.7,546.5H861v-19.6c0-1.4,0-2.9,0.1-4.2c2.801-1.101,7.101-2.101,10.5-2.101c3.4,0,5.5,0.9,6.7,2.2
			c2.601-1.399,6.101-2.2,9.9-2.2c7.6,0,8.7,4.2,8.7,9.2v16.8h-2.7v-16.1c0-5.3-1.3-7.5-7-7.5c-2.101,0-5.2,0.6-7.601,1.9
			c0.5,1.399,0.7,3.1,0.7,4.899v16.8h-2.7v-16.1c0-5.3-1.3-7.5-7-7.5c-1.699,0-5,0.6-6.899,1.4c0,1.3-0.101,3-0.101,4.3v17.8H863.7z
			"/>
		<path d="M906.3,512.9c0-1.601,0.4-2.301,1.601-2.301c1.199,0,1.6,0.601,1.6,2.301c0,1.6-0.3,2.199-1.6,2.199
			C906.6,515.1,906.3,514.5,906.3,512.9z M906.6,520.8h2.7v25.7h-2.7V520.8z"/>
		<path d="M920.7,544.2h16v2.3H918c-0.9,0-1.3-0.4-1.3-1c0-0.3,0.2-0.7,0.5-1.2l16.399-21.2H917.9v-2.3h18.3c0.899,0,1.3,0.4,1.3,1
			c0,0.3-0.2,0.7-0.5,1.2L920.7,544.2z"/>
		<path d="M945.4,521.4c3-0.5,5.8-0.9,9.399-0.9c5.4,0,9.601,1.3,9.601,7.7V540.6c0,1.4,0,2.9-0.101,4.2c-3.1,1.4-6.6,2-10.399,2
			c-6.801,0-10.101-1.899-10.101-7.5c0-4.399,1.8-7.2,6.3-7.899c3.301-0.5,7.5-0.601,11.7-0.801V529c0-4.5-1.399-6.2-7.6-6.2
			c-2.9,0-5.601,0.4-8.4,0.8L945.4,521.4z M954,544.5c2.5,0,5.2-0.4,7.6-1.3c0-1.3,0.101-3,0.101-4.3V532.8
			c-3.2,0.101-7.9,0.2-10.9,0.7c-3,0.6-4.399,1.9-4.399,5.6C946.4,543.5,948.6,544.5,954,544.5z"/>
		<path d="M976.5,546.5h-2.701v-19.6c0-1.4,0-2.9,0.102-4.2c2.799-1.101,7.1-2.101,10.5-2.101c3.398,0,5.5,0.9,6.699,2.2
			c2.6-1.399,6.1-2.2,9.9-2.2c7.6,0,8.699,4.2,8.699,9.2v16.8H1007v-16.1c0-5.3-1.301-7.5-7-7.5c-2.1,0-5.201,0.6-7.6,1.9
			c0.5,1.399,0.699,3.1,0.699,4.899v16.8h-2.699v-16.1c0-5.3-1.301-7.5-7-7.5c-1.701,0-5,0.6-6.9,1.4c0,1.3-0.1,3-0.1,4.3v17.8
			H976.5z"/>
		<path d="M1018.7,533.7c0-9.601,3-13.2,11.201-13.2c8.199,0,11.199,3.7,11.199,13.2c0,9.399-3,13.2-11.199,13.2
			C1021.7,546.8,1018.7,543.3,1018.7,533.7z M1038.401,533.7c0-8.2-2.102-10.8-8.5-10.8c-6.301,0-8.5,2.199-8.5,10.8
			c0,8.6,2.199,10.8,8.5,10.8C1036.2,544.5,1038.401,541.9,1038.401,533.7z"/>
		<path d="M1051.401,526.9c0,3.699,2.398,4.1,6.799,5.399c5.5,1.7,8.1,3.2,8.1,7.5c0,5.5-4.1,7.101-9.699,7.101
			c-2.801,0-5.199-0.2-7.9-0.801L1049,543.9c2.1,0.3,4.299,0.6,6.5,0.6c3.4,0,8,0,8-4.5c0-3.4-2.1-4.1-6.801-5.5
			c-4-1.2-8.1-2.1-8.1-7.3s3.6-6.7,8.801-6.7c3.1,0,5.398,0.3,8,0.8l-0.301,2.2c-1.9-0.3-4.1-0.6-6.4-0.6
			C1055.5,522.9,1051.401,523,1051.401,526.9z"/>
		<path d="M1091.5,526.9c0,3.699,2.4,4.1,6.799,5.399c5.5,1.7,8.102,3.2,8.102,7.5c0,5.5-4.102,7.101-9.701,7.101
			c-2.799,0-5.199-0.2-7.9-0.801l0.301-2.199c2.1,0.3,4.301,0.6,6.5,0.6c3.4,0,8,0,8-4.5c0-3.4-2.1-4.1-6.801-5.5
			c-4-1.2-8.1-2.1-8.1-7.3s3.6-6.7,8.801-6.7c3.1,0,5.4,0.3,8,0.8l-0.301,2.2c-1.9-0.3-4.1-0.6-6.4-0.6
			C1095.6,522.9,1091.5,523,1091.5,526.9z"/>
		<path d="M1114,520.8h2.699V537c0,5.2,0.9,7.5,7.9,7.5c2.301,0,6-0.6,7.801-1.4c0-1.3,0.1-3,0.1-4.3v-18h2.699V540.4
			c0,1.399,0,2.899-0.1,4.199c-2.9,1.2-7,2.101-11.5,2.101c-8.6,0-9.5-4.101-9.5-9.2v-16.7H1114z"/>
		<path d="M1146,526.9c0,3.699,2.4,4.1,6.799,5.399c5.5,1.7,8.102,3.2,8.102,7.5c0,5.5-4.102,7.101-9.701,7.101
			c-2.799,0-5.199-0.2-7.9-0.801l0.301-2.199c2.1,0.3,4.301,0.6,6.5,0.6c3.4,0,8,0,8-4.5c0-3.4-2.1-4.1-6.801-5.5
			c-4-1.2-8.1-2.1-8.1-7.3s3.6-6.7,8.801-6.7c3.1,0,5.4,0.3,8,0.8l-0.301,2.2c-1.9-0.3-4.1-0.6-6.4-0.6
			C1150.2,522.9,1146,523,1146,526.9z"/>
		<path d="M1200.6,546.2c-2,0.399-3.801,0.7-6.199,0.7c-8.701,0-10.4-5.9-10.4-13.5c0-8.4,1.9-12.9,11.1-12.9c2.1,0,3.9,0.3,5.4,0.7
			l-0.201,2.1c-1-0.2-2.898-0.399-4.199-0.399c-8.5,0-9.4,3.199-9.4,10.5c0,6.8,0.701,11,9.301,11c1.299,0,3.199-0.301,4.299-0.5
			L1200.6,546.2z"/>
		<path d="M1206.6,533.7c0-9.601,3-13.2,11.199-13.2c8.201,0,11.201,3.7,11.201,13.2c0,9.399-3,13.2-11.201,13.2
			C1209.6,546.9,1206.6,543.3,1206.6,533.7z M1226.299,533.7c0-8.2-2.1-10.8-8.5-10.8c-6.299,0-8.5,2.199-8.5,10.8
			c0,8.6,2.201,10.8,8.5,10.8C1224.2,544.5,1226.299,541.9,1226.299,533.7z"/>
		<path d="M1239.299,526.9c0,3.699,2.4,4.1,6.801,5.399c5.5,1.7,8.1,3.2,8.1,7.5c0,5.5-4.1,7.101-9.699,7.101
			c-2.801,0-5.201-0.2-7.9-0.801l0.301-2.199c2.1,0.3,4.299,0.6,6.5,0.6c3.398,0,8,0,8-4.5c0-3.4-2.102-4.1-6.801-5.5
			c-4-1.2-8.1-2.1-8.1-7.3s3.6-6.7,8.799-6.7c3.102,0,5.4,0.3,8,0.8l-0.299,2.2c-1.9-0.3-4.1-0.6-6.4-0.6
			C1243.401,522.9,1239.299,523,1239.299,526.9z"/>
		<path d="M1267.901,513.6v7.2h5.898v2.2h-5.898v16.7c0,4.1,1.299,4.8,4.799,4.8c0.4,0,0.801,0,1.201-0.1l0.199,2.1
			c-0.699,0.1-1.6,0.2-2.301,0.2c-4.6,0-6.5-2-6.5-6.601V522.9h-4.799v-2.2h4.799V514L1267.901,513.6z"/>
		<path d="M1279.799,533.7c0-9.3,2.801-13.2,11.102-13.2c8.5,0,11,4.4,11,11.1c0,0.801,0,1.9-0.102,2.7c-2.898,0.5-9,1.101-12.6,1.2
			l-6.699,0.3c0.5,5.4,1.699,8.7,9.1,8.7c3.301,0,6.4-0.4,9-0.7l0.301,2.3c-3,0.4-5.801,0.801-10.602,0.801
			C1282,546.8,1279.799,541.3,1279.799,533.7z M1289.901,533.2c2.398-0.101,6.6-0.4,9.199-0.8c0-0.601,0.1-1.4,0.1-2
			c0-4.5-2.1-7.601-8.299-7.601c-6.9,0-8.5,3.3-8.5,10.7L1289.901,533.2z"/>
		<path d="M1312.1,526.9c0,3.699,2.4,4.1,6.801,5.399c5.5,1.7,8.1,3.2,8.1,7.5c0,5.5-4.1,7.101-9.701,7.101
			c-2.799,0-5.199-0.2-7.898-0.801l0.299-2.199c2.1,0.3,4.301,0.6,6.5,0.6c3.4,0,8,0,8-4.5c0-3.4-2.1-4.1-6.799-5.5
			c-4-1.2-8.102-2.1-8.102-7.3s3.602-6.7,8.801-6.7c3.1,0,5.4,0.3,8,0.8l-0.301,2.2c-1.898-0.3-4.1-0.6-6.398-0.6
			C1316.2,522.9,1312.1,523,1312.1,526.9z"/>
	</g>
</g>
</svg>
