<?xml version="1.0" encoding="utf-8"?>
<!DOCTYPE svg PUBLIC "-//W3C//DTD SVG 1.1//EN" "http://www.w3.org/Graphics/SVG/1.1/DTD/svg11.dtd">
<svg version="1.1" xmlns="http://www.w3.org/2000/svg" xmlns:xlink="http://www.w3.org/1999/xlink"
	 width="100%" height="100%" viewBox="0 0 805 1260" enable-background="new 0 0 805 1260" xml:space="preserve">
<polygon opacity="0.8" fill="#FFFFFF" points="240.701,0 0,1260 804.5,1260 804.5,0 "/>
</svg>
