<svg xmlns="http://www.w3.org/2000/svg" width="805" height="1260" viewBox="0 0 805 1260">
  <polygon fill="#FFF" points="240.701 0 0 1260 804.5 1260 804.5 0" opacity="1" transform="matrix(-1 0 0 1 804.5 0)"/>
</svg>
